1 10 20
100 200 125
201 210 89
900 1000 174
1 1 1
2 2 2
3 3 8
4 4 3
5 5 6
6 6 9
7 7 17
8 8 4
9 9 20
10 10 7
10 1 20
200 100 125
210 201 89
1000 900 174
10 12 15
45 90 116
90 45 116
21 10 21
12 10 15
1000 1 179
1 1000 179
2 2000 182
2000 2 182
1 11 20
11 1 20
123 234 128
45 345 144
12 11 15
12 321 131
500 500 111
90 99 119
99 90 119
123 456 144
12 34 112
12 12 10
67 89 116
98 21 119
13 13 10
14 14 18
420 24 144
123 234 128
1 2 2
2 4 8
4 6 9
1 6 9
6 1 9
24 34 112
56 57 33
901 903 117
904 999 174
1510 1511 92
2000 2001 113
2001 2111 170
14 45 112
45 14 112
123 234 128
13 24 21
24 35 112
46 57 113
45 46 17
56 57 33
57 56 33
24 27 112
78 59 116
35 69 113
13 345 144
12 344 144
13 45 112
65 87 116
90 99 119
1234 1236 133
6000 6111 187
435 345 134
234 64 128
35 77 116
34 31 107
75 83 111
89 21 116
42 64 113
24 46 112
12 23 21
14 15 18
16 17 13
12 26 24
24 24 11
45 65 113
75 34 116
34 7 112
1 87 116
54 2 113
24 5 21
56 6 113
35 4 112
4 32 112
90 1 116
909 9000 262
6 6 9
7 7 17
8 8 4
9 9 20
10 10 7
10 1 20
200 100 125
210 201 89
1000 900 174
10 12 15
45 90 116
90 45 116
21 10 21
12 10 15
1000 1 179
1 1000 179
2 2000 182
2000 2 182
1 11 20
11 1 20
123 234 128
45 345 144
12 11 15
12 321 131
500 500 111
90 99 119
99 90 119
123 456 144
12 34 112
12 12 10
67 89 116
98 21 119
13 13 10
14 14 18
420 24 144
123 234 128
1 2 2
2 4 8
4 6 9
1 6 9
6 1 9
24 34 112
56 57 33
901 903 117
904 999 174
1510 1511 92
2000 2001 113
2001 2111 170
14 45 112
45 14 112
123 234 128
13 24 21
24 35 112
46 57 113
45 46 17
56 57 33
57 56 33
24 27 112
78 59 116
35 69 113
13 345 144
12 344 144
13 45 112
65 87 116
90 99 119
1234 1236 133
6000 6111 187
435 345 134
234 64 128
35 77 116
34 31 107
75 83 111
89 21 116
42 64 113
24 46 112
12 23 21
14 15 18
16 17 13
12 26 24
24 24 11
45 65 113
75 34 116
34 7 112
1 87 116
54 2 113
24 5 21
56 6 113
35 4 112
4 32 112
90 1 116
909 9000 262
