.................
----------------------------------------------------------------------
Ran 17 tests in 0.081s

OK
Name             Stmts   Miss Branch BrPart  Cover   Missing
------------------------------------------------------------
Collatz.py          64      0     28      0   100%
TestCollatz.py      76      0      0      0   100%
------------------------------------------------------------
TOTAL              140      0     28      0   100%
