1 10 20
100 200 125
201 210 89
900 1000 174
2 2 2
10 1 20
976635 434571 525
1000 500 179
1 1 1
26884 86318 351
21634 56477 340
318444 645239 509
110850 376265 443
36277 42018 306
1999 20020 279
40120 40120 45
118752 45052 354
57409 248326 443
38497 150492 375
350 5038 238
51427 36630 314
50 679 145
10320 3000 262
91241 91241 103
77 316 131
2410 56102 340
69838 13015 340
2215 56380 340
52065 816808 509
423 354 134
970 7139 262
4189 49257 324
66 76 116
2 444 144
4470 46899 324
29941 1129 308
75268 305223 443
247 365 144
33279 297953 443
6698 9176 257
8417 467 262
69420 190000 383
8555 7279 252
9455 20593 279
192 1217 182
6233 17837 279
1 1000 179
9462 16887 276
218380 307608 443
87953 686531 509
48023 20007 324
1 4517 238
132 7166 262
1938 57592 340
11864 72156 340
38026 15638 324
49 1045 179
6867 27469 308
5798 30061 308
1093 5767 238
3472 4600 238
72173 72173 43
120 25229 282
791 2897 209
5460 43480 324
40990 15313 324
53759 41622 340
5191 7775 262
818 8351 262
32578 102813 351
82820 439915 449
87768 40401 351
4850 9068 262
3034 6204 262
2416 9999 262
27901 38103 324
579134 580000 328
789 6325 262
55 490 144
333 82050 351
2572 82385 351
1234 5678 238
8765 5432 262
8484 10000 260
916 36382 324
832 25333 282
6096 94406 351
363 3293 217
3 957 179
461 597 142
1128 3618 217
1225 7595 262
614 708 171
319 1017 179
1020 1020 50
711 999 179
999 711 179
1708 30055 308
1237 62420 340
2010 168 182
459 4925 238
374 4859 238
9625 7437 260
3748 8248 262
48489 161616 383
2001 2010 144
